{
  "name": "dlww-blood-on-the-range",
  "title": "Deadlands the Weird West: Blood on the Range",
  "description": "<p>Have you ever wanted to try a game of Savage Worlds? This absolutely free module version of the Savage Worlds Test Drive rules includes everything you need to play</p>",
  "version": "1.0.1",
  "minimumCoreVersion": "0.7.5",
  "compatibleCoreVersion": "0.7.9",
  "scripts": [],
  "esmodules": [
    "./Scripts/testdrive.js"
  ],
  "styles": [
    "./Styles/testdrive-core-fonts.css",
    "./Styles/testdrive-core.css",
    "./Styles/testdrive-trade-dress.css"
  ],
  "packs": [],
  "languages": [],
  "authors": [
    "Pinnacle Entertainment Group"
  ],
  "keywords": [],
  "socket": false,
  "url": "https://www.peginc.com/",
  "manifest": "https://gitlab.com/peginc/dlww-blood-on-the-range/-/raw/master/world.json",
  "download": "https://gitlab.com/peginc/dlww-blood-on-the-range/-/raw/master/dlww-blood-on-the-range-v1.0.1.zip",
  "license": "",
  "readme": "",
  "bugs": "",
  "changelog": "",
  "background": "worlds/dlww-blood-on-the-range/assets/art/DL_Test_Drive_Cover.webp",
  "system": "swade",
  "coreVersion": "0.7.9",
  "systemVersion": "0.17.2",
  "dependencies": [
    {
      "name": "swade",
      "type": "system"
    }
  ],
  "nextSession": "1970-01-01T00:00:00.000Z",
  "availability": 0,
  "unavailable": false
}
